{
"name"    : "is_zeron_onen",
"alphabet": [ "0", "1", ".", "z", "o", "y", "n" ],
"blank"   : ".",
"states"  : [ "found_z", "zero_found", "search_one",
              "goto_b", "goto_b_n", "goto_b_y", "HALT" ],
"initial" : "found_z",
"finals"  : [ "HALT" ],
"transitions" : {
"found_z": [
{ "read" : "0", "to_state": "zero_found", "write": "z", "action": "RIGHT"},
{ "read" : "z", "to_state": "found_z", "write": "z", "action": "RIGHT"},
{ "read" : "1", "to_state": "goto_b_n", "write": "1", "action": "LEFT"},
{ "read" : "o", "to_state": "goto_b_y", "write": "o", "action": "RIGHT"},
{ "read" : ".", "to_state": "goto_b_n", "write": ".", "action": "LEFT"}
],
"zero_found": [
{ "read" : "0", "to_state": "zero_found", "write": "0", "action": "RIGHT"},
{ "read" : "z", "to_state": "zero_found", "write": "z", "action": "RIGHT"},
{ "read" : "1", "to_state": "zero_found", "write": "1", "action": "RIGHT"},
{ "read" : "o", "to_state": "zero_found", "write": "o", "action": "RIGHT"},
{ "read" : ".", "to_state": "search_one", "write": ".", "action": "LEFT"}
],
"search_one": [
{ "read" : "0", "to_state": "goto_b_n", "write": "0", "action": "LEFT"},
{ "read" : "z", "to_state": "goto_b_y", "write": "z", "action": "LEFT"},
{ "read" : "1", "to_state": "goto_b", "write": "o", "action": "LEFT"},
{ "read" : "o", "to_state": "search_one", "write": "o", "action": "LEFT"}
],
"is_not_language": [
{ "read" : "0", "to_state": "is_language", "write": "0", "action": "RIGHT"},
{ "read" : ".", "to_state": "HALT", "write": "n", "action": "RIGHT"}
] }
}
